module gitlab.com/zephinzer/kubexpect

go 1.13

require (
	github.com/gogo/protobuf v1.3.1 // indirect
	github.com/googleapis/gnostic v0.3.1 // indirect
	github.com/imdario/mergo v0.3.8 // indirect
	github.com/sanity-io/litter v1.2.0
	golang.org/x/crypto v0.0.0-20191206172530-e9b2fee46413 // indirect
	golang.org/x/net v0.0.0-20191209160850-c0dbc17a3553 // indirect
	golang.org/x/oauth2 v0.0.0-20191202225959-858c2ad4c8b6 // indirect
	golang.org/x/time v0.0.0-20191024005414-555d28b269f0 // indirect
	k8s.io/api v0.17.0
	k8s.io/apimachinery v0.17.0
	k8s.io/client-go v0.17.0
	k8s.io/utils v0.0.0-20191114200735-6ca3b61696b6 // indirect
)
